Universo Tidy
…
❌ A impressão do data.frame mostra todas as 100
linhas, o que pode deixar o console poluído e difícil de
ler.

Impressão do tibble

## # A tibble: 100 × 5
##       id nome      idade cidade         renda
##    <int> <chr>     <int> <chr>          <dbl>
##  1     1 Pessoa 1     70 Viçosa         3142.
##  2     2 Pessoa 2     45 São Paulo      3722.
##  3     3 Pessoa 3     78 São Paulo      3134.
##  4     4 Pessoa 4     51 São Paulo      1533.
##  5     5 Pessoa 5     78 Viçosa         3234.
##  6     6 Pessoa 6     65 Belo Horizonte 2408.
##  7     7 Pessoa 7     74 Fortaleza      3183.
##  8     8 Pessoa 8     57 Belo Horizonte 2888.
##  9     9 Pessoa 9     58 Belo Horizonte 2504.
## 10    10 Pessoa 10    21 Belo Horizonte 3285.
## # ℹ 90 more rows
…
